{
  "shell_port": 44705,
  "iopub_port": 48069,
  "stdin_port": 43427,
  "control_port": 57611,
  "hb_port": 54361,
  "ip": "127.0.0.1",
  "key": "b21642b7-596e5b53d37e03459e843645",
  "transport": "tcp",
  "signature_scheme": "hmac-sha256",
  "kernel_name": ""
}